{
    "filters": [
        {
            "label": "$0 - $5.00",
            "value": "1"
        },
        {
            "label": "$5 - $10.00",
            "value": "2"
        },
        {
            "label": "$10 - $20.00",
            "value": "3"
        }
    ]
}